<?xml version="1.0" encoding="UTF-8" standalone="no"?>
<!-- Created with Inkscape (http://www.inkscape.org/) -->

<svg
   width="851"
   height="315"
   viewBox="0 0 225.16042 83.34375"
   version="1.1"
   id="svg1"
   xml:space="preserve"
   inkscape:version="1.3.2 (091e20ef0f, 2023-11-25, custom)"
   sodipodi:docname="librebootaware2.svg"
   inkscape:export-filename="print.svg"
   inkscape:export-xdpi="96"
   inkscape:export-ydpi="96"
   xmlns:inkscape="http://www.inkscape.org/namespaces/inkscape"
   xmlns:sodipodi="http://sodipodi.sourceforge.net/DTD/sodipodi-0.dtd"
   xmlns:xlink="http://www.w3.org/1999/xlink"
   xmlns="http://www.w3.org/2000/svg"
   xmlns:svg="http://www.w3.org/2000/svg"
   xmlns:rdf="http://www.w3.org/1999/02/22-rdf-syntax-ns#"
   xmlns:cc="http://creativecommons.org/ns#"
   xmlns:dc="http://purl.org/dc/elements/1.1/"><defs
     id="defs1" /><sodipodi:namedview
     id="base"
     pagecolor="#ffffff"
     bordercolor="#000000"
     borderopacity="0.3"
     inkscape:pageopacity="0.0"
     inkscape:pageshadow="2"
     inkscape:zoom="0.59603863"
     inkscape:cx="403.49734"
     inkscape:cy="231.52862"
     inkscape:document-units="mm"
     inkscape:showpageshadow="0"
     inkscape:pagecheckerboard="1"
     inkscape:deskcolor="#505050"
     inkscape:window-width="1366"
     inkscape:window-height="768"
     inkscape:window-x="0"
     inkscape:window-y="0"
     inkscape:window-maximized="0"
     inkscape:current-layer="svg1" /><metadata
     id="metadata1"><rdf:RDF><cc:Work
         rdf:about=""><dc:format>image/svg+xml</dc:format><dc:type
           rdf:resource="http://purl.org/dc/dcmitype/StillImage" /></cc:Work></rdf:RDF></metadata><rect
     style="display:inline;fill:none;fill-opacity:1;stroke:#ffffff;stroke-width:0.3;stroke-linecap:round;stroke-linejoin:round;stroke-opacity:1;paint-order:stroke fill markers"
     id="rect16"
     width="240.11945"
     height="98.212257"
     x="-7.5101867"
     y="-7.543283" /><rect
     style="display:inline;fill:#000000;fill-opacity:1;stroke-width:0.291756;stroke-linecap:round;stroke-linejoin:round;paint-order:stroke fill markers"
     id="rect3"
     width="235.62541"
     height="93.024498"
     x="-5.2562451"
     y="-4.9892421"
     inkscape:label="bleed"
     inkscape:export-filename="./cutcontour.svg"
     inkscape:export-xdpi="96"
     inkscape:export-ydpi="96" /><image
     width="225.16042"
     height="83.34375"
     preserveAspectRatio="none"
     xlink:href="../../../deeraware.jpg"
     id="image1"
     x="-1.4998079e-07"
     y="1.0866771e-08"
     style="display:none" /><g
     inkscape:groupmode="layer"
     id="layer1"
     inkscape:label="Layer 1"
     style="display:inline"><text
       xml:space="preserve"
       style="font-size:15.5222px;letter-spacing:-0.595312px;fill:#f4ef21;fill-opacity:1;stroke-width:0.3;stroke-linecap:round;stroke-linejoin:round;paint-order:stroke fill markers"
       x="11.565215"
       y="15.639981"
       id="text1"><tspan
         sodipodi:role="line"
         style="font-style:normal;font-variant:normal;font-weight:normal;font-stretch:normal;font-size:15.5222px;font-family:'Source Sans Pro Black';-inkscape-font-specification:'Source Sans Pro Black, ';letter-spacing:-0.595312px;fill:#f4ef21;fill-opacity:1;stroke-width:0.3"
         x="11.565215"
         y="15.639981"
         id="tspan2"
         dx="0">REDUCE SPISPEED TO 512.</tspan></text><text
       xml:space="preserve"
       style="font-size:16.9333px;letter-spacing:-0.460375px;display:inline;fill:#f4ef21;fill-opacity:1;stroke-width:0.3;stroke-linecap:round;stroke-linejoin:round;paint-order:stroke fill markers"
       x="11.295282"
       y="30.139618"
       id="text1-2"><tspan
         sodipodi:role="line"
         style="font-style:normal;font-variant:normal;font-weight:normal;font-stretch:normal;font-size:16.9333px;font-family:'Source Sans Pro Black';-inkscape-font-specification:'Source Sans Pro Black, ';letter-spacing:-0.460375px;fill:#f4ef21;fill-opacity:1;stroke-width:0.3"
         x="11.295282"
         y="30.139618"
         id="tspan2-9">INCREASE DRIVE LEVEL.</tspan></text><path
       style="display:inline;fill:#ed1e23;fill-opacity:1;stroke-width:0.3;stroke-linecap:round;stroke-linejoin:round;paint-order:stroke fill markers"
       d="m 177.02272,60.877422 17.60112,-30.122609 c 1.51729,-2.613504 3.80204,-1.549413 4.61341,0.01386 l 17.42952,30.063495 c 1.16385,2.033014 0.0871,4.194835 -2.39938,4.124619 l -35.36715,0.06756 c -1.57098,-0.01204 -2.86285,-2.314577 -1.87752,-4.146925 z"
       id="path2"
       sodipodi:nodetypes="ccccccc" /><path
       style="fill:#ffffff;fill-opacity:1;stroke-width:0.3;stroke-linecap:round;stroke-linejoin:round;paint-order:stroke fill markers"
       d="m 181.02764,61.548145 h 31.92757 L 196.98784,33.913986 Z"
       id="path1" /><path
       d="m 199.64605,52.935224 0.0576,-0.155242 c 0.13276,-0.34603 0.25391,-0.708745 0.34603,-1.08089 0.0288,-0.09793 0.0403,-0.190062 0.0461,-0.282191 -0.0115,0.201669 -0.005,0.07472 0,-0.04614 0.0288,-0.570187 0.0231,-0.863261 -0.0115,-1.160686 -0.023,-0.213277 -0.0403,-0.420749 -0.0403,-0.628222 -0.005,-0.184259 -0.0115,-0.357637 -0.0288,-0.530289 -0.005,-0.07472 -0.005,-0.150164 -0.005,-0.230686 0,-0.258978 0.0288,-0.512878 0.0921,-0.768955 l 0.0921,-0.04033 c 0.34603,-0.155242 0.65143,-0.385928 0.89952,-0.673923 h 0.12115 c 0.13856,0 0.27639,-0.01726 0.40915,-0.05187 0.17265,-0.04034 0.34022,-0.103736 0.50127,-0.178455 0.0747,-0.03461 0.14435,-0.08052 0.20167,-0.132753 0.0403,-0.04034 0.0747,-0.09213 0.10373,-0.144361 0.0346,-0.07472 0.0921,-0.132753 0.16685,-0.166849 0.0691,-0.03461 0.12695,-0.08052 0.15524,-0.150164 0.0288,-0.05187 0.0231,-0.115343 -0.005,-0.166849 -0.0346,-0.0576 -0.0921,-0.109539 -0.15524,-0.126949 -0.0691,-0.0288 -0.13856,-0.05187 -0.20167,-0.08052 -0.11534,-0.05187 -0.20747,-0.09213 -0.2938,-0.132755 -0.0461,-0.02307 -0.19006,-0.07472 -0.33442,-0.109539 -0.15524,-0.04614 -0.30541,-0.08052 -0.45557,-0.121147 -0.11535,-0.03461 -0.2938,-0.10954 -0.45557,-0.213276 -0.21328,-0.12695 -0.43236,-0.23649 -0.65724,-0.322816 -0.16104,-0.0634 -0.34022,-0.09793 -0.51868,-0.10954 h -0.22488 l -0.0172,-0.04034 -0.0747,-0.34603 -0.0461,-0.282191 -0.0231,-0.144361 0.0519,-0.0288 c 0.25391,-0.161046 0.47226,-0.362715 0.65144,-0.599204 0.0403,-0.04614 0.0519,-0.103737 0.0403,-0.161046 -0.0115,-0.08052 -0.0864,-0.138557 -0.16685,-0.138557 -0.0346,0 -0.0691,0.01153 -0.0921,0.03461 l -0.23068,0.150164 c -0.15524,0.109539 -0.31701,0.201669 -0.48386,0.287996 l -0.0346,-0.04614 c -0.19007,-0.21908 -0.2996,-0.501272 -0.2996,-0.797972 v -0.115343 c 0.0172,-0.121146 0.0346,-0.253901 0.0519,-0.391732 0.005,-0.04034 0,-0.08052 -0.0115,-0.115343 -0.023,-0.05187 -0.0403,-0.103736 -0.0634,-0.14436 -0.0115,-0.04034 -0.0461,-0.06913 -0.0863,-0.07472 -0.0461,0 -0.0864,0 -0.12695,0.01726 -0.0403,0.01726 -0.0864,0.03461 -0.12695,0.0576 -0.0403,0.02307 -0.0634,0.0576 -0.0747,0.103736 -0.0691,0.21908 -0.0979,0.443962 -0.0979,0.673923 0,0.270586 0.0461,0.541896 0.13275,0.797972 0.0403,0.09213 0.0805,0.184259 0.13276,0.264782 0.0864,0.150164 0.16104,0.299602 0.23068,0.45557 0.0921,0.224883 0.13856,0.461372 0.13856,0.70294 v 0.05187 l -0.0747,0.04034 c -0.18426,0.109539 -0.33442,0.270585 -0.42655,0.46645 h -0.0691 c -0.26478,0.02307 -0.52448,0.08052 -0.76895,0.178456 -0.15017,0.0576 -0.288,0.150164 -0.39753,0.258978 -0.0231,0.0288 -0.0461,0.0634 -0.0576,0.09793 l 0.0634,0.0288 0.0864,0.05187 0.0864,0.05187 0.0747,0.04614 c 0.0346,0.02306 0.0747,0.04034 0.11534,0.05187 0.0979,0.01726 0.19007,0.0346 0.288,0.0346 0.16685,0.0058 0.33442,0.03461 0.49547,0.08052 l -0.0403,0.08052 c -0.0461,0.09213 -0.0864,0.184259 -0.12116,0.276389 -0.0805,0.2539 -0.15015,0.507075 -0.20166,0.7617 -0.11534,0.559306 -0.23069,1.08089 -0.35763,1.595944 -0.0346,0.155242 -0.10374,0.311209 -0.18427,0.45557 -0.3112,0.547699 -0.76895,0.993838 -1.33479,1.276754 -0.2938,0.155242 -0.61081,0.253901 -0.9358,0.31121 -0.53029,0.08052 -1.05912,0.132753 -1.58143,0.150163 -0.40334,0.01153 -0.827,0.05187 -1.23323,0.132755 -0.19007,0.03461 -0.37432,0.06913 -0.55351,0.109539 -0.31121,0.0634 -0.62241,0.161045 -0.92129,0.287995 -0.34603,0.144361 -0.66885,0.32862 -0.95757,0.559307 -0.24229,0.190062 -0.42655,0.443962 -0.53028,0.739937 -0.0172,0.04034 -0.0231,0.08633 -0.0231,0.132754 0,0.09793 0.0346,0.190062 0.10374,0.264781 0.0691,0.07472 0.16685,0.103736 0.26478,0.08633 l -0.0805,0.138557 c -0.0346,0.04614 -0.0576,0.09793 -0.0805,0.150163 -0.0461,0.126951 -0.0864,0.248098 -0.12115,0.380126 -0.0979,0.357636 -0.17845,0.70294 -0.2481,1.051872 -0.0231,0.132753 -0.10953,0.270585 -0.24229,0.368518 -0.0461,0.03461 -0.0979,0.06913 -0.15017,0.08633 -0.14435,0.0634 -0.29379,0.10954 -0.43815,0.144361 -0.19006,0.04033 -0.36852,0.08633 -0.5419,0.126949 -0.0403,0.01153 -0.0921,0.04614 -0.12695,0.09213 -0.0461,0.06913 -0.0805,0.138557 -0.0921,0.219079 -0.0115,0.0576 -0.0231,0.10954 -0.0288,0.166849 -0.0519,0.311209 -0.12695,0.628222 -0.23068,0.928549 -0.10374,0.305405 -0.2365,0.605008 -0.38593,0.892278 -0.0519,0.09793 -0.10374,0.184259 -0.16685,0.276389 -0.0461,0.06913 -0.0979,0.150163 -0.13275,0.230686 -0.0346,0.06913 -0.0691,0.132754 -0.10955,0.195866 -0.023,0.04034 -0.0691,0.07472 -0.11534,0.09213 l -0.0634,0.01153 c -0.12115,0.02307 -0.23648,0.0576 -0.34022,0.115343 -0.11534,0.0576 -0.22489,0.115344 -0.34022,0.172652 -0.25391,0.132754 -0.51289,0.374322 -0.69714,0.673924 -0.0115,0.02307 -0.023,0.0576 -0.023,0.09213 0,0.02307 0.005,0.05187 0.0172,0.08052 0.0346,0.06913 0.10954,0.109539 0.18426,0.109539 0.72543,0.01726 1.41459,-0.282191 1.90788,-0.826988 0.14436,-0.161046 0.30541,-0.34603 0.47225,-0.524486 0.57019,-0.634025 0.91405,-1.088143 1.21872,-1.574181 0.0231,-0.03461 0.0519,-0.05187 0.0805,-0.05187 0.0172,0 0.0288,0 0.0403,0.0058 0.0576,0.0288 0.10955,0.04614 0.17266,0.05187 0.0747,0.01726 0.17845,0.0288 0.28219,0.05187 0.13275,0.01726 0.26478,0.02307 0.39173,0 0.20747,-0.0288 0.41494,-0.07472 0.61081,-0.144361 0.2938,-0.09793 0.57019,-0.248096 0.81248,-0.443963 0.39173,-0.305405 0.76896,-0.645631 1.14618,-0.993838 0.18426,-0.178455 0.39753,-0.317012 0.63402,-0.414945 0.65724,-0.276389 1.35656,-0.45557 2.07473,-0.524485 0.26478,-0.02307 0.5419,-0.04614 0.81249,-0.0576 0.16103,-0.01153 0.32861,-0.0288 0.48966,-0.06913 0.19006,-0.05187 0.44396,-0.109539 0.69713,-0.172652 0.26478,-0.07472 0.44977,-0.12695 0.62243,-0.195865 0.29379,-0.109541 0.58179,-0.23649 0.86326,-0.362715 l 0.0864,0.03461 c 0.10373,0.05187 0.21907,0.08052 0.34022,0.09213 0.38012,0.01726 0.76895,-0.02307 1.13167,-0.132754 l 0.31702,-0.08633 0.15523,-0.04614 0.15525,-0.05187 0.21908,-0.06913 0.19586,-0.0634 c 0.14436,-0.04034 0.288,-0.08633 0.43816,-0.132754 0.22488,-0.0634 0.35764,-0.09793 0.49547,-0.12695 l -0.0805,0.144361 -0.46646,0.906786 -0.47806,0.892278 -0.005,0.01726 -0.12114,0.02307 c -0.0921,0.01153 -0.18426,0.03461 -0.27059,0.06913 -0.34603,0.138557 -0.67392,0.317013 -0.96482,0.541896 -0.0979,0.08052 -0.18425,0.178455 -0.23649,0.299602 -0.0115,0.02307 -0.0346,0.05187 -0.0519,0.07472 -0.0172,0.01726 -0.0231,0.04034 -0.0231,0.0634 0,0.0288 0.0172,0.0634 0.0461,0.08052 0.0519,0.0288 0.10955,0.0634 0.16685,0.09213 0.0116,0.0058 0.0346,0.01153 0.0519,0.01726 0.0634,0.0058 0.12695,0.01153 0.19586,0.01153 0.0805,0.0058 0.16105,0.01153 0.2481,0.01726 0.0747,0.0058 0.14437,0 0.20748,-0.02307 0.10954,-0.03461 0.22487,-0.07472 0.33442,-0.126951 0.14436,-0.06913 0.28219,-0.144359 0.41494,-0.230685 0.10374,-0.06913 0.20167,-0.150164 0.288,-0.242294 0.0461,-0.04614 0.17265,-0.178456 0.29961,-0.317012 0.3627,-0.374322 0.58179,-0.628222 0.79071,-0.885024 0.17265,-0.213276 0.32862,-0.432355 0.48967,-0.651436 0.14435,-0.207472 0.27638,-0.409141 0.39753,-0.622417 0.0634,-0.103736 0.11534,-0.207473 0.17265,-0.317013 0.0461,-0.09213 0.0805,-0.195865 0.0921,-0.293799 0.0231,-0.115343 0,-0.23649 -0.0576,-0.334422 -0.0461,-0.06913 -0.10374,-0.121147 -0.17845,-0.161046 -0.0403,-0.01726 -0.0805,-0.0288 -0.12696,-0.04034 -0.0288,-0.0058 -0.0576,-0.01726 -0.0864,-0.03461 -0.0805,-0.0576 -0.17265,-0.09793 -0.27058,-0.121147 -0.0403,-0.01153 -0.0921,-0.01726 -0.13856,-0.01726 l -0.36271,0.01153 -0.19587,0.01153 -0.31121,0.01153 h -0.73994 l -0.2938,0.01153 c -0.35183,0.01516 -0.70439,0.07835 -1.03011,0.177006 z"
       id="path1-3"
       style="display:inline;stroke-width:0.0725429" /><text
       xml:space="preserve"
       style="font-style:normal;font-variant:normal;font-weight:normal;font-stretch:normal;font-size:7.05556px;font-family:'Source Sans Pro Black';-inkscape-font-specification:'Source Sans Pro Black, ';letter-spacing:0.264583px;fill:#000000;fill-opacity:1;stroke:#ff00ff;stroke-width:0.3;stroke-linecap:round;stroke-linejoin:round;stroke-opacity:1;paint-order:stroke fill markers"
       x="11.745408"
       y="79.592003"
       id="text10"><tspan
         sodipodi:role="line"
         id="tspan10"
         style="font-size:7.05556px;letter-spacing:0.264583px;fill:#f9f8f3;fill-opacity:1;stroke:none;stroke-width:0.3"
         x="11.745408"
         y="79.592003">WWW.LIBREBOOT.ORG</tspan></text><text
       xml:space="preserve"
       style="font-style:normal;font-variant:normal;font-weight:normal;font-stretch:normal;font-size:7.3025px;line-height:1.6;font-family:'Source Sans Pro Black';-inkscape-font-specification:'Source Sans Pro Black, ';letter-spacing:0.264583px;fill:#000000;fill-opacity:1;stroke:#ff00ff;stroke-width:0.3;stroke-linecap:round;stroke-linejoin:round;stroke-opacity:1;paint-order:stroke fill markers"
       x="35.919842"
       y="42.376972"
       id="text10-6"><tspan
         sodipodi:role="line"
         id="tspan10-06"
         style="font-size:7.3025px;line-height:1.6;letter-spacing:0.264583px;fill:#f9f8f3;fill-opacity:1;stroke:none;stroke-width:0.3"
         x="35.919842"
         y="42.376972"><tspan
   style="font-size:7.3025px;letter-spacing:-0.105833px;fill:#f9f8f3;fill-opacity:1"
   id="tspan13">- </tspan>Look out for badly connected wires</tspan><tspan
         sodipodi:role="line"
         style="font-size:7.3025px;line-height:1.6;letter-spacing:0.264583px;fill:#f9f8f3;fill-opacity:1;stroke:none;stroke-width:0.3"
         x="35.919842"
         y="54.06097"
         id="tspan11"><tspan
   style="font-size:7.3025px;letter-spacing:-0.105833px;fill:#f9f8f3;fill-opacity:1"
   id="tspan14">- </tspan>Check that wires aren't too long</tspan><tspan
         sodipodi:role="line"
         style="font-size:7.3025px;line-height:1.6;letter-spacing:-0.105833px;fill:#f9f8f3;fill-opacity:1;stroke:none;stroke-width:0.3"
         x="35.919842"
         y="65.744972"
         id="tspan12">- If in doubt, laptop=force_I_want_a_brick</tspan></text><text
       xml:space="preserve"
       style="font-style:normal;font-variant:normal;font-weight:normal;font-stretch:normal;font-size:8.21972px;font-family:'Source Sans Pro Black';-inkscape-font-specification:'Source Sans Pro Black, ';letter-spacing:0px;fill:#f4ef21;fill-opacity:1;stroke:#ff00ff;stroke-width:0.3;stroke-linecap:round;stroke-linejoin:round;stroke-opacity:1;paint-order:stroke fill markers"
       x="155.25531"
       y="79.27211"
       id="text10-7"><tspan
         sodipodi:role="line"
         id="tspan10-0"
         style="font-size:8.21972px;letter-spacing:0px;fill:#f4ef21;fill-opacity:1;stroke:none;stroke-width:0.3"
         x="155.25531"
         y="79.27211">/join #libreboot</tspan></text></g><rect
     style="display:none;fill:none;fill-opacity:1;stroke:#ff00ff;stroke-width:0.3;stroke-linecap:round;stroke-linejoin:round;stroke-opacity:1;paint-order:stroke fill markers"
     id="rect10"
     width="225.15868"
     height="83.343773"
     x="0.00088247558"
     y="-0.00070999964"
     ry="4.5939994"
     inkscape:label="CutContour" /></svg>
