<?xml version="1.0" encoding="UTF-8" standalone="no"?>
<svg
   height="79.695793mm"
   width="79.846733mm"
   version="1.1"
   viewBox="0 0 282.9215 282.38666"
   id="svg1"
   sodipodi:docname="logo.svg"
   inkscape:version="1.3.2 (091e20ef0f, 2023-11-25, custom)"
   xmlns:inkscape="http://www.inkscape.org/namespaces/inkscape"
   xmlns:sodipodi="http://sodipodi.sourceforge.net/DTD/sodipodi-0.dtd"
   xmlns:xlink="http://www.w3.org/1999/xlink"
   xmlns="http://www.w3.org/2000/svg"
   xmlns:svg="http://www.w3.org/2000/svg">
  <defs
     id="defs1">
    <linearGradient
       id="linearGradient22"
       inkscape:label="p">
      <stop
         style="stop-color:#e50000;stop-opacity:1;"
         offset="0.08548462"
         id="stop1" />
      <stop
         style="stop-color:#ff8d00;stop-opacity:1;"
         offset="0.18874705"
         id="stop2" />
      <stop
         style="stop-color:#ff8d00;stop-opacity:1;"
         offset="0.27309054"
         id="stop3" />
      <stop
         style="stop-color:#ffee00;stop-opacity:1;"
         offset="0.36555019"
         id="stop4" />
      <stop
         style="stop-color:#ffee00;stop-opacity:1;"
         offset="0.43560833"
         id="stop17" />
      <stop
         style="stop-color:#028121;stop-opacity:1;"
         offset="0.52243572"
         id="stop18" />
      <stop
         style="stop-color:#028121;stop-opacity:1;"
         offset="0.61000001"
         id="stop19" />
      <stop
         style="stop-color:#004cff;stop-opacity:1;"
         offset="0.72835749"
         id="stop20" />
      <stop
         style="stop-color:#004cff;stop-opacity:1;"
         offset="0.7797671"
         id="stop21" />
      <stop
         style="stop-color:#770088;stop-opacity:1;"
         offset="0.90309972"
         id="stop22" />
    </linearGradient>
    <linearGradient
       id="linearGradient4">
      <stop
         style="stop-color:#000000;stop-opacity:1;"
         offset="0"
         id="stop7" />
      <stop
         style="stop-color:#000000;stop-opacity:0;"
         offset="1"
         id="stop8" />
    </linearGradient>
    <linearGradient
       id="linearGradient4-1"
       inkscape:label="p">
      <stop
         style="stop-color:#e50000;stop-opacity:1;"
         offset="0.07855672"
         id="stop5" />
      <stop
         style="stop-color:#ff8d00;stop-opacity:1;"
         offset="0.18874705"
         id="stop9" />
      <stop
         style="stop-color:#ff8d00;stop-opacity:1;"
         offset="0.25718528"
         id="stop13" />
      <stop
         style="stop-color:#ffee00;stop-opacity:1;"
         offset="0.36555019"
         id="stop11" />
      <stop
         style="stop-color:#ffee00;stop-opacity:1;"
         offset="0.43560833"
         id="stop14" />
      <stop
         style="stop-color:#028121;stop-opacity:1;"
         offset="0.54248375"
         id="stop15" />
      <stop
         style="stop-color:#028121;stop-opacity:1;"
         offset="0.61000001"
         id="stop12" />
      <stop
         style="stop-color:#004cff;stop-opacity:1;"
         offset="0.72835749"
         id="stop10" />
      <stop
         style="stop-color:#004cff;stop-opacity:1;"
         offset="0.7797671"
         id="stop16" />
      <stop
         style="stop-color:#770088;stop-opacity:1;"
         offset="0.90971231"
         id="stop6" />
    </linearGradient>
    <linearGradient
       inkscape:collect="always"
       xlink:href="#linearGradient4-1"
       id="linearGradient6"
       x1="257.37759"
       y1="512.42438"
       x2="513.38226"
       y2="512.42438"
       gradientUnits="userSpaceOnUse" />
    <linearGradient
       inkscape:collect="always"
       xlink:href="#linearGradient22"
       id="linearGradient23"
       gradientUnits="userSpaceOnUse"
       x1="269.83356"
       y1="626.31476"
       x2="477.09549"
       y2="444.28989"
       spreadMethod="pad" />
  </defs>
  <sodipodi:namedview
     id="namedview1"
     pagecolor="#505050"
     bordercolor="#ffffff"
     borderopacity="1"
     inkscape:showpageshadow="0"
     inkscape:pageopacity="0"
     inkscape:pagecheckerboard="1"
     inkscape:deskcolor="#505050"
     inkscape:document-units="mm"
     showgrid="false"
     inkscape:zoom="1.8888728"
     inkscape:cx="146.3836"
     inkscape:cy="148.23655"
     inkscape:window-width="1366"
     inkscape:window-height="768"
     inkscape:window-x="0"
     inkscape:window-y="0"
     inkscape:window-maximized="0"
     inkscape:current-layer="layer1" />
  <path
     id="path1"
     style="display:inline;fill:none;fill-opacity:1;fill-rule:evenodd;stroke:#ffffff;stroke-width:0.708661;stroke-linecap:round;stroke-linejoin:round;stroke-dasharray:none;stroke-opacity:1;paint-order:stroke fill markers"
     inkscape:label="v.reuna"
     d="m 202.34793,0.36193143 c -5.9161,0.1929975 -11.94031,3.14285757 -14.9813,8.35263477 -2.88428,5.4970388 -3.4306,11.8521528 -3.39016,17.9618058 0.12259,7.835429 2.61962,15.522637 6.62146,22.222127 0.35644,0.725887 0.76794,1.425433 1.08008,2.172417 -0.43695,0.380821 -1.16604,0.269551 -1.71663,0.469531 -6.86045,1.485235 -13.66444,4.51747 -18.37254,9.87116 -3.78705,4.425436 -4.77553,11.331944 -1.61841,16.368389 2.02394,3.347108 5.63118,5.164712 8.92438,7.017482 0.4085,0.261444 1.08453,0.585351 1.61719,0.828125 -1.89979,8.162161 -3.37204,16.429907 -5.63758,24.503297 -1.25802,4.02629 -3.97136,7.42632 -7.00264,10.28246 -5.17574,4.89767 -12.10801,7.61214 -19.12568,8.40754 -5.59108,0.66116 -11.20558,1.09859 -16.82688,1.40846 -4.94555,0.28184 -9.89638,0.58218 -14.79698,1.33704 -7.31386,1.09032 -14.57333,2.6491 -21.625859,4.88509 -9.343325,3.07794 -18.262567,7.86548 -25.369151,14.73666 -4.993105,5.00951 -8.677373,11.61711 -9.228001,18.75481 -0.175143,3.21019 0.773206,6.37941 2.179172,9.23542 -1.304734,4.15751 -2.213945,8.42545 -3.230468,12.66016 -0.144835,0.60658 -0.334153,1.36734 -0.496094,2.0332 -4.87912,1.46927 -10.202463,1.84786 -14.58991,4.65619 -4.505326,2.88152 -7.090951,7.99175 -8.042634,13.13313 -0.891058,6.35363 -2.674548,12.57896 -5.315479,18.42766 -1.541115,3.48717 -3.428931,6.81133 -5.440649,10.04279 -3.504447,1.27886 -6.858845,2.97162 -10.05664,4.89062 -4.645369,2.82635 -8.7953021,6.52907 -11.8309719,11.06277 -2.4093731,3.38603 -4.15418818,7.52574 -3.62626488,11.75536 0.69847478,6.7182 6.04932798,12.87226 12.82442378,13.89867 6.714069,0.89641 13.545234,-0.33721 19.904489,-2.50462 8.690151,-3.14866 16.234481,-8.9977 22.054337,-16.11826 5.957123,-6.71701 11.986642,-13.40214 17.228674,-20.70524 7.200829,0.925 14.460564,-0.75723 21.185862,-3.25417 5.626418,-2.10599 10.756894,-5.35241 15.383554,-9.15666 5.63649,-4.55847 10.81651,-9.65187 16.43668,-14.22753 2.41306,-1.88802 5.41627,-2.71654 8.24165,-3.7734 5.94561,-2.06109 12.11603,-3.45694 18.37375,-4.12725 4.06823,-0.46522 8.30484,-0.74413 12.4684,-0.99847 7.0825,-0.51821 13.9322,-2.51221 20.74322,-4.39881 5.22085,-1.50158 10.37535,-3.27947 15.2997,-5.5852 3.52361,0.83356 7.18975,0.9632 10.79687,0.77344 -2.69176,1.80054 -5.29824,3.78258 -7.36769,6.2973 -2.65699,3.12071 -4.80515,6.83219 -5.4995,10.91168 -0.79427,6.32075 3.14354,12.73761 8.92278,15.26365 4.36685,2.36182 9.46369,2.49184 14.30884,2.58187 3.69524,-0.0188 7.34215,-0.95234 10.68216,-2.50767 7.15436,-2.8582 13.54685,-7.51399 18.58386,-13.33219 8.48403,-8.87793 16.53529,-18.2481 23.11226,-28.64764 2.71918,-4.26864 5.3412,-8.65241 7.1576,-13.39138 2.12785,-6.10895 1.7,-13.33457 -2.11008,-18.70567 -2.62657,-3.83206 -6.75917,-6.33449 -11.05424,-7.90316 -3.59796,-1.67922 -7.53327,-2.87945 -11.54455,-2.61413 -4.69138,0.059 -9.37345,0.45736 -14.0675,0.4063 -2.24569,0.0287 -4.49136,0.064 -6.73722,0.0766 1.06304,-6.04028 0.9204,-12.20596 0.76527,-18.31179 -0.18704,-4.04124 -0.60811,-8.0672 -0.80238,-12.10814 -0.0307,-0.75867 -0.0598,-1.82283 -0.10724,-2.69812 -0.15093,-3.30647 -0.38385,-6.61532 -0.26776,-9.92688 2.68513,-1.59004 5.14183,-3.55467 7.50586,-5.572261 1.65823,-0.301764 3.34781,-0.434184 4.97005,-0.925181 5.68169,-1.441424 11.37533,-3.737262 15.62761,-7.895132 1.36925,-1.351056 2.36229,-3.078636 4.01886,-4.129131 6.12989,-4.870828 7.67966,-14.619439 3.16273,-21.06572 -2.45921,-3.85764 -6.68706,-6.054786 -10.84198,-7.632335 -4.65165,-2.049556 -9.44642,-3.817017 -14.42146,-4.900211 -2.67868,-0.68808 -5.13924,-1.993961 -7.46751,-3.455107 -2.27119,-1.267363 -4.62234,-2.388753 -7.02486,-3.383902 2.93957,-3.418695 5.0689,-7.836375 4.70961,-12.438739 -0.42311,-6.746029 -5.61254,-13.046397 -12.34191,-14.271234 -1.65962,-0.322484 -3.37292,-0.371328 -5.04739,-0.13573 -0.18803,-5.342263 -2.60438,-10.7323464 -6.88773,-14.0233622 -2.56185,-1.9210677 -5.77391,-2.96940097 -8.97946,-2.86140337 z" />
  <g
     inkscape:groupmode="layer"
     id="layer1"
     inkscape:label="image"
     style="display:inline">
    <g
       transform="translate(-243.8753,-371.21179)"
       id="g1"
       style="display:inline;fill:url(#linearGradient6);fill-opacity:1;stroke:#000000;stroke-opacity:1">
      <path
         d="m 461,533 0.794,-2.14 c 1.83,-4.77 3.5,-9.77 4.77,-14.9 0.397,-1.35 0.556,-2.62 0.636,-3.89 -0.159,2.78 -0.0792,1.03 0,-0.636 0.397,-7.86 0.318,-11.9 -0.159,-16 -0.318,-2.94 -0.556,-5.8 -0.556,-8.66 -0.0792,-2.54 -0.159,-4.93 -0.397,-7.31 -0.0792,-1.03 -0.0792,-2.07 -0.0792,-3.18 0,-3.57 0.397,-7.07 1.27,-10.6 l 1.27,-0.556 c 4.77,-2.14 8.98,-5.32 12.4,-9.29 h 1.67 c 1.91,0 3.81,-0.238 5.64,-0.715 2.38,-0.556 4.69,-1.43 6.91,-2.46 1.03,-0.477 1.99,-1.11 2.78,-1.83 0.556,-0.556 1.03,-1.27 1.43,-1.99 0.477,-1.03 1.27,-1.83 2.3,-2.3 0.953,-0.477 1.75,-1.11 2.14,-2.07 0.397,-0.715 0.318,-1.59 -0.0792,-2.3 -0.477,-0.794 -1.27,-1.51 -2.14,-1.75 -0.953,-0.397 -1.91,-0.715 -2.78,-1.11 -1.59,-0.715 -2.86,-1.27 -4.05,-1.83 -0.636,-0.318 -2.62,-1.03 -4.61,-1.51 -2.14,-0.636 -4.21,-1.11 -6.28,-1.67 -1.59,-0.477 -4.05,-1.51 -6.28,-2.94 -2.94,-1.75 -5.96,-3.26 -9.06,-4.45 -2.22,-0.874 -4.69,-1.35 -7.15,-1.51 h -3.1 l -0.238,-0.556 -1.03,-4.77 -0.636,-3.89 -0.318,-1.99 0.715,-0.397 c 3.5,-2.22 6.51,-5 8.98,-8.26 0.556,-0.636 0.715,-1.43 0.556,-2.22 -0.159,-1.11 -1.19,-1.91 -2.3,-1.91 -0.477,0 -0.953,0.159 -1.27,0.477 l -3.18,2.07 c -2.14,1.51 -4.37,2.78 -6.67,3.97 l -0.477,-0.636 c -2.62,-3.02 -4.13,-6.91 -4.13,-11 v -1.59 c 0.238,-1.67 0.477,-3.5 0.715,-5.4 0.0792,-0.556 0,-1.11 -0.159,-1.59 -0.318,-0.715 -0.556,-1.43 -0.874,-1.99 -0.159,-0.556 -0.636,-0.953 -1.19,-1.03 -0.636,0 -1.19,0 -1.75,0.238 -0.556,0.238 -1.19,0.477 -1.75,0.794 -0.556,0.318 -0.874,0.794 -1.03,1.43 -0.953,3.02 -1.35,6.12 -1.35,9.29 0,3.73 0.636,7.47 1.83,11 0.556,1.27 1.11,2.54 1.83,3.65 1.19,2.07 2.22,4.13 3.18,6.28 1.27,3.1 1.91,6.36 1.91,9.69 v 0.715 l -1.03,0.556 c -2.54,1.51 -4.61,3.73 -5.88,6.43 h -0.953 c -3.65,0.318 -7.23,1.11 -10.6,2.46 -2.07,0.794 -3.97,2.07 -5.48,3.57 -0.318,0.397 -0.636,0.874 -0.794,1.35 l 0.874,0.397 1.19,0.715 1.19,0.715 1.03,0.636 c 0.477,0.318 1.03,0.556 1.59,0.715 1.35,0.238 2.62,0.477 3.97,0.477 2.3,0.0792 4.61,0.477 6.83,1.11 l -0.556,1.11 c -0.636,1.27 -1.19,2.54 -1.67,3.81 -1.11,3.5 -2.07,6.99 -2.78,10.5 -1.59,7.71 -3.18,14.9 -4.93,22 -0.477,2.14 -1.43,4.29 -2.54,6.28 -4.29,7.55 -10.6,13.7 -18.4,17.6 -4.05,2.14 -8.42,3.5 -12.9,4.29 -7.31,1.11 -14.6,1.83 -21.8,2.07 -5.56,0.159 -11.4,0.715 -17,1.83 -2.62,0.477 -5.16,0.953 -7.63,1.51 -4.29,0.874 -8.58,2.22 -12.7,3.97 -4.77,1.99 -9.22,4.53 -13.2,7.71 -3.34,2.62 -5.88,6.12 -7.31,10.2 -0.238,0.556 -0.318,1.19 -0.318,1.83 0,1.35 0.477,2.62 1.43,3.65 0.953,1.03 2.3,1.43 3.65,1.19 l -1.11,1.91 c -0.477,0.636 -0.794,1.35 -1.11,2.07 -0.636,1.75 -1.19,3.42 -1.67,5.24 -1.35,4.93 -2.46,9.69 -3.42,14.5 -0.318,1.83 -1.51,3.73 -3.34,5.08 -0.636,0.477 -1.35,0.953 -2.07,1.19 -1.99,0.874 -4.05,1.51 -6.04,1.99 -2.62,0.556 -5.08,1.19 -7.47,1.75 -0.556,0.159 -1.27,0.636 -1.75,1.27 -0.636,0.953 -1.11,1.91 -1.27,3.02 -0.159,0.794 -0.318,1.51 -0.397,2.3 -0.715,4.29 -1.75,8.66 -3.18,12.8 -1.43,4.21 -3.26,8.34 -5.32,12.3 -0.715,1.35 -1.43,2.54 -2.3,3.81 -0.636,0.953 -1.35,2.07 -1.83,3.18 -0.477,0.953 -0.953,1.83 -1.51,2.7 -0.318,0.556 -0.953,1.03 -1.59,1.27 l -0.874,0.159 c -1.67,0.318 -3.26,0.794 -4.69,1.59 -1.59,0.794 -3.1,1.59 -4.69,2.38 -3.5,1.83 -7.07,5.16 -9.61,9.29 -0.159,0.318 -0.318,0.794 -0.318,1.27 0,0.318 0.0792,0.715 0.238,1.11 0.477,0.953 1.51,1.51 2.54,1.51 10,0.238 19.5,-3.89 26.3,-11.4 1.99,-2.22 4.21,-4.77 6.51,-7.23 7.86,-8.74 12.6,-15 16.8,-21.7 0.318,-0.477 0.715,-0.715 1.11,-0.715 0.238,0 0.397,0 0.556,0.0792 0.794,0.397 1.51,0.636 2.38,0.715 1.03,0.238 2.46,0.397 3.89,0.715 1.83,0.238 3.65,0.318 5.4,0 2.86,-0.397 5.72,-1.03 8.42,-1.99 4.05,-1.35 7.86,-3.42 11.2,-6.12 5.4,-4.21 10.6,-8.9 15.8,-13.7 2.54,-2.46 5.48,-4.37 8.74,-5.72 9.06,-3.81 18.7,-6.28 28.6,-7.23 3.65,-0.318 7.47,-0.636 11.2,-0.794 2.22,-0.159 4.53,-0.397 6.75,-0.953 2.62,-0.715 6.12,-1.51 9.61,-2.38 3.65,-1.03 6.2,-1.75 8.58,-2.7 4.05,-1.51 8.02,-3.26 11.9,-5 l 1.19,0.477 c 1.43,0.715 3.02,1.11 4.69,1.27 5.24,0.238 10.6,-0.318 15.6,-1.83 l 4.37,-1.19 2.14,-0.636 2.14,-0.715 3.02,-0.953 2.7,-0.874 c 1.99,-0.556 3.97,-1.19 6.04,-1.83 3.1,-0.874 4.93,-1.35 6.83,-1.75 l -1.11,1.99 -6.43,12.5 -6.59,12.3 -0.0792,0.238 -1.67,0.318 c -1.27,0.159 -2.54,0.477 -3.73,0.953 -4.77,1.91 -9.29,4.37 -13.3,7.47 -1.35,1.11 -2.54,2.46 -3.26,4.13 -0.159,0.318 -0.477,0.715 -0.715,1.03 -0.238,0.238 -0.318,0.556 -0.318,0.874 0,0.397 0.238,0.874 0.636,1.11 0.715,0.397 1.51,0.874 2.3,1.27 0.159,0.0792 0.477,0.159 0.715,0.238 0.874,0.0792 1.75,0.159 2.7,0.159 1.11,0.0792 2.22,0.159 3.42,0.238 1.03,0.0792 1.99,0 2.86,-0.318 1.51,-0.477 3.1,-1.03 4.61,-1.75 1.99,-0.953 3.89,-1.99 5.72,-3.18 1.43,-0.953 2.78,-2.07 3.97,-3.34 0.636,-0.636 2.38,-2.46 4.13,-4.37 5,-5.16 8.02,-8.66 10.9,-12.2 2.38,-2.94 4.53,-5.96 6.75,-8.98 1.99,-2.86 3.81,-5.64 5.48,-8.58 0.874,-1.43 1.59,-2.86 2.38,-4.37 0.636,-1.27 1.11,-2.7 1.27,-4.05 0.318,-1.59 0,-3.26 -0.794,-4.61 -0.636,-0.953 -1.43,-1.67 -2.46,-2.22 -0.556,-0.238 -1.11,-0.397 -1.75,-0.556 -0.397,-0.0792 -0.794,-0.238 -1.19,-0.477 -1.11,-0.794 -2.38,-1.35 -3.73,-1.67 -0.556,-0.159 -1.27,-0.238 -1.91,-0.238 l -5,0.159 -2.7,0.159 -4.29,0.159 h -10.2 l -4.05,0.159 c -4.85,0.209 -9.71,1.08 -14.2,2.44 z"
         id="path24"
         style="display:inline;fill:url(#linearGradient23);fill-opacity:1;fill-rule:evenodd;stroke:none;stroke-width:1.06299;stroke-linecap:round;stroke-linejoin:round;stroke-dasharray:none;stroke-opacity:1"
         inkscape:label="fill"
         transform="translate(-4.052462e-6)" />
    </g>
    <path
       d="m 217.1247,161.78821 0.794,-2.14 c 1.83,-4.77 3.5,-9.77 4.77,-14.9 0.397,-1.35 0.556,-2.62 0.636,-3.89 -0.159,2.78 -0.0792,1.03 0,-0.636 0.397,-7.86 0.318,-11.9 -0.159,-16 -0.318,-2.94 -0.556,-5.8 -0.556,-8.66 -0.0792,-2.54 -0.159,-4.93 -0.397,-7.31 -0.0792,-1.03 -0.0792,-2.07 -0.0792,-3.18 0,-3.57 0.397,-7.070003 1.27,-10.600003 l 1.27,-0.556 c 4.77,-2.14 8.98,-5.32 12.4,-9.29 h 1.67 c 1.91,0 3.81,-0.238 5.64,-0.715 2.38,-0.556 4.69,-1.43 6.91,-2.46 1.03,-0.477 1.99,-1.11 2.78,-1.83 0.556,-0.556 1.03,-1.27 1.43,-1.99 0.477,-1.03 1.27,-1.83 2.3,-2.3 0.953,-0.477 1.75,-1.11 2.14,-2.07 0.397,-0.715 0.318,-1.59 -0.0792,-2.3 -0.477,-0.794 -1.27,-1.51 -2.14,-1.75 -0.953,-0.397 -1.91,-0.715 -2.78,-1.11 -1.59,-0.715 -2.86,-1.27 -4.05,-1.83 -0.636,-0.318 -2.62,-1.03 -4.61,-1.51 -2.14,-0.636 -4.21,-1.11 -6.28,-1.67 -1.59,-0.477 -4.05,-1.51 -6.28,-2.94 -2.94,-1.75 -5.96,-3.26 -9.06,-4.45 -2.22,-0.874 -4.69,-1.35 -7.15,-1.51 h -3.1 l -0.238,-0.556 -1.03,-4.77 -0.636,-3.89 -0.318,-1.99 0.715,-0.397 c 3.5,-2.22 6.51,-5 8.98,-8.26 0.556,-0.636 0.715,-1.43 0.556,-2.22 -0.159,-1.11 -1.19,-1.91 -2.3,-1.91 -0.477,0 -0.953,0.159 -1.27,0.477 l -3.18,2.07 c -2.14,1.51 -4.37,2.78 -6.67,3.97 l -0.477,-0.636 c -2.62,-3.02 -4.13,-6.91 -4.13,-11 v -1.59 c 0.238,-1.67 0.477,-3.5 0.715,-5.4 0.0792,-0.556 0,-1.11 -0.159,-1.59 -0.318,-0.715 -0.556,-1.43 -0.874,-1.99 -0.159,-0.556 -0.636,-0.953 -1.19,-1.03 -0.636,0 -1.19,0 -1.75,0.238 -0.556,0.238 -1.19,0.477 -1.75,0.794 -0.556,0.318 -0.874,0.794 -1.03,1.43 -0.953,3.02 -1.35,6.12 -1.35,9.29 0,3.73 0.636,7.47 1.83,11 0.556,1.27 1.11,2.54 1.83,3.65 1.19,2.07 2.22,4.13 3.18,6.28 1.27,3.1 1.91,6.36 1.91,9.69 v 0.715 l -1.03,0.556 c -2.54,1.51 -4.61,3.73 -5.88,6.43 h -0.953 c -3.65,0.318 -7.23,1.11 -10.6,2.46 -2.07,0.794 -3.97,2.07 -5.48,3.57 -0.318,0.397 -0.636,0.874 -0.794,1.35 l 0.874,0.397 1.19,0.715 1.19,0.715 1.03,0.636 c 0.477,0.318 1.03,0.556 1.59,0.715 1.35,0.238 2.62,0.477 3.97,0.477 2.3,0.0792 4.61,0.477 6.83,1.11 l -0.556,1.11 c -0.636,1.27 -1.19,2.54 -1.67,3.81 -1.11,3.5 -2.07,6.99 -2.78,10.5 -1.59,7.71 -3.18,14.900003 -4.93,22.000003 -0.477,2.14 -1.43,4.29 -2.54,6.28 -4.29,7.55 -10.6,13.7 -18.4,17.6 -4.05,2.14 -8.42,3.5 -12.9,4.29 -7.31,1.11 -14.6,1.83 -21.8,2.07 -5.56,0.159 -11.4,0.715 -17,1.83 -2.62,0.477 -5.16,0.953 -7.62999,1.51 -4.29,0.874 -8.580005,2.22 -12.700005,3.97 -4.77,1.99 -9.22,4.53 -13.2,7.71 -3.34,2.62 -5.88,6.12 -7.31,10.2 -0.238,0.556 -0.318,1.19 -0.318,1.83 0,1.35 0.477,2.62 1.43,3.65 0.953,1.03 2.3,1.43 3.65,1.19 l -1.11,1.91 c -0.477,0.636 -0.794,1.35 -1.11,2.07 -0.636,1.75 -1.19,3.42 -1.67,5.24 -1.35,4.93 -2.46,9.69 -3.42,14.5 -0.318,1.83 -1.51,3.73 -3.34,5.08 -0.636,0.477 -1.35,0.953 -2.07,1.19 -1.99,0.874 -4.05,1.51 -6.04,1.99 -2.62,0.556 -5.08,1.19 -7.47,1.75 -0.556,0.159 -1.27,0.636 -1.75,1.27 -0.636,0.953 -1.11,1.91 -1.27,3.02 -0.159,0.794 -0.318,1.51 -0.397,2.3 -0.715,4.29 -1.75,8.66 -3.18,12.8 -1.43,4.21 -3.26,8.34 -5.32,12.3 -0.715,1.35 -1.43,2.54 -2.3,3.81 -0.636,0.953 -1.35,2.07 -1.83,3.18 -0.477,0.953 -0.953,1.83 -1.51,2.7 -0.318,0.556 -0.953,1.03 -1.59,1.27 l -0.874,0.159 c -1.67,0.318 -3.26,0.794 -4.69,1.59 -1.59,0.794 -3.1,1.59 -4.69,2.38 -3.5,1.83 -7.07,5.16 -9.61,9.29 -0.159,0.318 -0.318,0.794 -0.318,1.27 0,0.318 0.0792,0.715 0.238,1.11 0.477,0.953 1.51,1.51 2.54,1.51 10,0.238 19.5,-3.89 26.3,-11.4 1.99,-2.22 4.21,-4.77 6.51,-7.23 7.86,-8.74 12.6,-15 16.8,-21.7 0.318,-0.477 0.715,-0.715 1.11,-0.715 0.238,0 0.397,0 0.556,0.0792 0.794,0.397 1.51,0.636 2.38,0.715 1.03,0.238 2.46,0.397 3.89,0.715 1.83,0.238 3.65,0.318 5.4,0 2.86,-0.397 5.72,-1.03 8.42,-1.99 4.05,-1.35 7.86,-3.42 11.2,-6.12 5.400005,-4.21 10.599995,-8.9 15.799995,-13.7 2.54,-2.46 5.48,-4.37 8.74,-5.72 9.06,-3.81 18.7,-6.28 28.6,-7.23 3.65,-0.318 7.47,-0.636 11.2,-0.794 2.22,-0.159 4.53,-0.397 6.75,-0.953 2.62,-0.715 6.12,-1.51 9.61,-2.38 3.65,-1.03 6.2,-1.75 8.58,-2.7 4.05,-1.51 8.02,-3.26 11.9,-5 l 1.19,0.477 c 1.43,0.715 3.02,1.11 4.69,1.27 5.24,0.238 10.6,-0.318 15.6,-1.83 l 4.37,-1.19 2.14,-0.636 2.14,-0.715 3.02,-0.953 2.7,-0.874 c 1.99,-0.556 3.97,-1.19 6.04,-1.83 3.1,-0.874 4.93,-1.35 6.83,-1.75 l -1.11,1.99 -6.43,12.5 -6.59,12.3 -0.0792,0.238 -1.67,0.318 c -1.27,0.159 -2.54,0.477 -3.73,0.953 -4.77,1.91 -9.29,4.37 -13.3,7.47 -1.35,1.11 -2.54,2.46 -3.26,4.13 -0.159,0.318 -0.477,0.715 -0.715,1.03 -0.238,0.238 -0.318,0.556 -0.318,0.874 0,0.397 0.238,0.874 0.636,1.11 0.715,0.397 1.51,0.874 2.3,1.27 0.159,0.0792 0.477,0.159 0.715,0.238 0.874,0.0792 1.75,0.159 2.7,0.159 1.11,0.0792 2.22,0.159 3.42,0.238 1.03,0.0792 1.99,0 2.86,-0.318 1.51,-0.477 3.1,-1.03 4.61,-1.75 1.99,-0.953 3.89,-1.99 5.72,-3.18 1.43,-0.953 2.78,-2.07 3.97,-3.34 0.636,-0.636 2.38,-2.46 4.13,-4.37 5,-5.16 8.02,-8.66 10.9,-12.2 2.38,-2.94 4.53,-5.96 6.75,-8.98 1.99,-2.86 3.81,-5.64 5.48,-8.58 0.874,-1.43 1.59,-2.86 2.38,-4.37 0.636,-1.27 1.11,-2.7 1.27,-4.05 0.318,-1.59 0,-3.26 -0.794,-4.61 -0.636,-0.953 -1.43,-1.67 -2.46,-2.22 -0.556,-0.238 -1.11,-0.397 -1.75,-0.556 -0.397,-0.0792 -0.794,-0.238 -1.19,-0.477 -1.11,-0.794 -2.38,-1.35 -3.73,-1.67 -0.556,-0.159 -1.27,-0.238 -1.91,-0.238 l -5,0.159 -2.7,0.159 -4.29,0.159 h -10.2 l -4.05,0.159 c -4.85,0.209 -9.71,1.08 -14.2,2.44 z"
       id="path27"
       style="display:inline;fill:none;fill-opacity:1;fill-rule:evenodd;stroke:#000000;stroke-width:4.96063;stroke-linecap:round;stroke-linejoin:round;stroke-dasharray:none;stroke-opacity:1;paint-order:stroke fill markers"
       inkscape:label="reuna" />
  </g>
  <path
     id="path26"
     style="display:inline;fill:none;fill-opacity:1;fill-rule:evenodd;stroke:#ff00ff;stroke-width:0.531496;stroke-linecap:round;stroke-linejoin:round;stroke-dasharray:none;stroke-opacity:1;paint-order:stroke fill markers"
     inkscape:label="CutContour"
     d="m 202.40615,5.9770752 c -3.3145,0.1146932 -6.60646,1.4918618 -8.97787,3.8138169 -2.1955,2.3204479 -2.70526,5.6061729 -3.3117,8.6140759 -1.23656,7.222392 -0.50081,14.806154 2.22828,21.613853 1.85886,4.245469 4.88776,8.042224 5.6648,12.71216 -1.31803,1.093879 -2.49187,2.353208 -3.55078,3.697266 -6.18954,0.915641 -12.49622,2.894344 -17.21779,7.166488 -2.2685,2.057769 -3.91071,5.066951 -3.54144,8.204566 0.2303,2.701396 2.16731,5.005332 4.57882,6.117446 2.73759,1.621566 5.48371,3.548592 8.75184,3.830094 0.56016,0.08217 -0.13842,0.977717 -0.11031,1.412619 -1.82381,6.856886 -3.00177,13.883612 -4.67165,20.75366 -0.74438,3.09649 -1.34784,6.24051 -2.35649,9.26399 -1.55539,3.90358 -4.19977,7.26879 -7.05776,10.30296 -4.67252,4.72323 -10.65866,8.12217 -17.09787,9.75092 -0.371,0.0955 -1.13408,0.27753 -1.65838,0.38622 -3.79365,0.74171 -7.64975,1.11261 -11.48998,1.52792 -5.07557,0.53119 -10.17837,0.66513 -15.27064,0.9404 -7.36358,0.45355 -14.63109,1.82276 -21.82992,3.38126 -10.233326,2.26216 -20.187591,6.41716 -28.429335,12.97285 -4.988399,3.91504 -8.86298,9.41436 -10.350473,15.61812 -0.70436,3.57206 0.272407,7.41272 2.515053,10.26893 -1.686189,5.01745 -2.856575,10.19036 -4.014388,15.35001 -0.326441,1.35113 -0.549607,2.75597 -0.979455,4.06459 -1.123006,1.04152 -2.729563,1.2661 -4.128374,1.76474 -3.148858,0.90703 -6.402616,1.40872 -9.541343,2.34289 -3.550416,1.07461 -6.225388,4.10759 -7.425954,7.54657 -1.036848,2.77252 -1.102873,5.77255 -1.820958,8.62627 -1.664063,7.60093 -4.487252,14.97699 -8.515372,21.64225 -1.079709,1.64938 -2.102669,3.33899 -2.994078,5.09823 -3.681808,0.94301 -6.990327,2.88703 -10.332323,4.63267 -3.094467,1.70988 -5.873339,3.95732 -8.197147,6.62105 -2.0520551,2.28511 -4.0068993,4.80647 -4.9562938,7.76502 -1.3749802,4.97559 1.7594504,10.7781 6.7882648,12.13572 3.052117,0.91915 6.283257,0.45385 9.396718,0.18147 10.432704,-1.33531 20.196368,-6.87086 26.90039,-14.94531 0.242085,-0.27398 0.803001,-0.89272 1.16718,-1.29873 6.800613,-7.52412 13.626231,-15.08995 19.258602,-23.55283 3.103681,0.58886 6.276736,1.06352 9.435421,0.63991 4.833297,-0.53508 9.589713,-1.80144 14.072028,-3.68236 4.673031,-1.99345 8.929757,-4.85498 12.759497,-8.17538 5.45909,-4.3711 10.49166,-9.24239 15.77916,-13.80915 3.13129,-2.27558 6.9025,-3.54019 10.45836,-4.75156 5.34408,-1.8837 10.896,-3.14464 16.50139,-3.94607 1.92925,-0.27567 4.0657,-0.51578 6.0862,-0.67785 4.63117,-0.43171 9.30848,-0.41215 13.90719,-1.15494 3.8794,-0.67445 7.66782,-1.83427 11.4384,-2.69863 6.86429,-1.62876 13.45429,-4.21861 19.88462,-7.08772 4.92521,1.65486 10.22268,1.24227 15.30011,0.69875 6.19621,-0.86558 12.17247,-2.80633 18.12462,-4.66869 0.83708,-0.40338 -0.18471,0.75069 -0.25746,1.10961 -1.23589,2.33128 -2.50101,4.67919 -3.75321,7.02634 -4.30907,1.10429 -8.27847,3.20427 -12.1446,5.3518 -3.29562,1.9549 -6.56887,4.1041 -9.11321,7.00563 -1.25547,1.6279 -2.30878,3.40621 -3.35025,5.17247 -1.89352,3.76823 -0.67587,8.88456 2.94501,11.16056 2.31086,1.57511 4.94594,2.85188 7.78782,2.95989 1.90986,0.11758 3.82366,0.17642 5.72913,0.34901 3.6315,0.1339 7.05543,-1.27286 10.31292,-2.71182 4.68318,-2.12212 9.1179,-4.9359 12.64699,-8.70971 2.56941,-2.66428 5.05608,-5.40711 7.61971,-8.07694 7.20817,-7.83795 13.74541,-16.31669 19.29886,-25.40736 1.846,-3.14571 3.73744,-6.32067 4.89206,-9.79714 1.40561,-4.47734 1.01513,-9.72957 -1.9274,-13.52375 -1.90197,-2.54563 -4.76183,-4.23922 -7.78064,-5.10762 -3.31179,-2.04436 -7.28697,-2.88128 -11.15024,-2.53393 -3.05666,0.11475 -6.22598,0.28222 -9.21147,0.37282 -5.88582,0.1514 -11.78662,-0.14005 -17.66016,0.38672 1.14106,-3.86604 2.32352,-7.79046 2.39462,-11.85319 0.21797,-5.29459 0.38187,-10.60789 -0.13171,-15.89201 -0.12224,-1.57561 -0.38052,-3.32361 -0.45236,-4.78605 -0.0788,-1.27314 -0.11635,-2.37155 -0.16055,-3.67516 -0.0593,-3.1664 -0.29391,-6.32389 -0.45859,-9.485 -0.0517,-2.23386 0.0409,-4.47709 0.39453,-6.685549 3.79438,-1.993043 7.28774,-4.555825 10.33203,-7.572265 5.89078,-0.380002 11.64994,-2.296004 16.72011,-5.289765 1.94588,-1.31765 3.56218,-3.099882 4.76036,-5.116485 3.19456,-1.73891 5.56597,-5.05405 5.784,-8.730858 0.32889,-3.559642 -1.47672,-7.114424 -4.37044,-9.156486 -2.11351,-1.581626 -4.72858,-2.177199 -7.06354,-3.333485 -2.95498,-1.34351 -5.98424,-2.563078 -9.16502,-3.256072 -3.11856,-0.841687 -6.39112,-1.447905 -9.13118,-3.261935 -5.41044,-3.183538 -11.17813,-6.103004 -17.46593,-6.977961 -0.29748,-0.509686 0.37347,-0.79448 0.7386,-1.129054 3.07693,-2.557123 5.92188,-5.498375 7.92317,-8.983865 2.33381,-4.809955 -0.0436,-11.351695 -5.0661,-13.327548 -3.42117,-1.554399 -7.59555,-0.72167 -10.43089,1.651692 -0.53605,0.351467 -1.07209,0.702933 -1.60814,1.0544 -0.43349,-3.272164 0.94571,-6.467298 0.56515,-9.744535 -0.17106,-2.155982 -1.13475,-4.147182 -2.14132,-6.024996 -1.3644,-2.4450203 -3.93639,-4.1142278 -6.71571,-4.4038962 -0.43227,-0.052742 -0.8687,-0.065212 -1.30382,-0.057042 z" />
</svg>
